1+1      =  2.0
2-2      =  0.0
3*3      =  9.0
4/9      =  0.4444444444444444
2^10     =  1024.0
3*4+5*6  =  42.0
log(10)  =  2.302585092994046
sqrt(2)  =  1.4142135623730951
pi       =  3.141592653589793
e        =  2.718281828459045
+1/+0    =  +inf.0
-1/+0    =  -inf.0
+1/-0    =  -inf.0
-1/-0    =  +inf.0
+0/+0    =  +nan.0
-0/-0    =  +nan.0
sqrt(-1) =  0+1.0i
log(0)   =  -inf.0
6.02e23  =  6.019999999999999e+23
(1+2)/7  =  0.42857142857142855
