Quadratic Equation solver.
Input a, b, c:
Equation:  1.0 * x ^ 2 + 6.0 * x + 6.0
root1 =  -1.2679491924311228
root2 =  -4.732050807568877
Input a, b, c:
Equation:  6.0 * x ^ 2 + 13.0 * x + -28.0
root1 =  1.3333333333333333
root2 =  -3.5
Input a, b, c:
Equation:  1.0 * x ^ 2 + 4.0 * x + 4.0
root1 =  -2.0
root2 =  -2.0
Input a, b, c:
